…
``` r
remotes::install_github("sellorm/cranq")
```

## Usage

There are basically two things cranq can do for you. You can view the
incoming queue or you can search for a package within the queue.

To show all packages in the incoming queue:

``` r
library(cranq)
incoming()
#> # A tibble: 29 × 4
#>    name                         modified         size  queue  
#>    <chr>                        <chr>            <chr> <chr>  
#>  1 FCO_0.7.1.tar.gz             2022-02-09 18:17 155K  inspect
#>  2 FastJM_1.1.1.tar.gz          2022-02-09 18:03 137K  inspect
#>  3 bizicount_1.0.0.tar.gz       2022-02-09 19:13 42K   inspect
#>  4 iq_1.9.2.tar.gz              2022-02-04 19:00 1.0M  inspect
#>  5 musclesyneRgies_1.1.1.tar.gz 2022-02-09 18:24 1.2M  inspect
#>  6 rankFD_0.1.1.tar.gz          2022-01-25 20:04 36K   inspect
#>  7 Certara.R_1.0.0.tar.gz       2022-02-09 20:32 6.1K  newbies
#>  8 DBpower_0.1.0.tar.gz         2022-02-09 18:44 25K   newbies
#>  9 OlinkAnalyze_3.0.0.tar.gz    2022-02-09 19:37 1.2M  newbies
#> 10 RClickhouse_0.6.1.tar.gz     2022-02-09 21:31 104K  newbies
#> # … with 19 more rows
```
…
